slides
…
---
exclude: true

### Exercise Review

``` r
library(tsibble)
song_ts <- as_tsibble(song, key = region, index = date, regular = FALSE)
song_ts
```

```
## # A tsibble: 19,907 x 5 [!]
## # Key:       region [54]
##    artist     track_name   region date       streams
##    <chr>      <chr>        <chr>  <date>       <dbl>
##  1 Ed Sheeran Shape of You ar     2017-01-06   57617
##  2 Ed Sheeran Shape of You ar     2017-01-07   51212
##  3 Ed Sheeran Shape of You ar     2017-01-08   47299
##  4 Ed Sheeran Shape of You ar     2017-01-09   58157
##  5 Ed Sheeran Shape of You ar     2017-01-10   56384
##  6 Ed Sheeran Shape of You ar     2017-01-11   59494
##  7 Ed Sheeran Shape of You ar     2017-01-12   59565
##  8 Ed Sheeran Shape of You ar     2017-01-13   64899
##  9 Ed Sheeran Shape of You ar     2017-01-14   71555
## 10 Ed Sheeran Shape of You ar     2017-01-15   62253
## # ℹ 19,897 more rows
```
…
The dataset
[here](https://uwmadison.box.com/shared/static/xj4vupjbicw6c8tbhuynw0pll6yh1w0d.csv)
contains similar data. Read these
data into a tsibble, keyed by `artist:track_name` and extract features of the
`streams` time series using the `features` function in the feasts library.

``` r
spotify <- read_csv("https://uwmadison.box.com/shared/static/xj4vupjbicw6c8tbhuynw0pll6yh1w0d.csv") |>
    as_tsibble(key = artist:track_name, index = date)
spotify
```

```
## # A tsibble: 32,986 x 5 [1D]
## # Key:       artist, track_name [121]
##    artist                 track_name                   region date       streams
##    <chr>                  <chr>                        <chr>  <date>       <dbl>
##  1 A Boogie Wit da Hoodie Drowning (feat. Kodak Black) global 2017-04-11  463263
##  2 A Boogie Wit da Hoodie Drowning (feat. Kodak Black) global 2017-04-12  477565
##  3 A Boogie Wit da Hoodie Drowning (feat. Kodak Black) global 2017-04-13  498475
##  4 A Boogie Wit da Hoodie Drowning (feat. Kodak Black) global 2017-04-14  527291
##  5 A Boogie Wit da Hoodie Drowning (feat. Kodak Black) global 2017-04-15  503230
##  6 A Boogie Wit da Hoodie Drowning (feat. Kodak Black) global 2017-04-16  462189
##  7 A Boogie Wit da Hoodie Drowning (feat. Kodak Black) global 2017-04-17  514715
##  8 A Boogie Wit da Hoodie Drowning (feat. Kodak Black) global 2017-04-18  566673
##  9 A Boogie Wit da Hoodie Drowning (feat. Kodak Black) global 2017-04-19  600067
## 10 A Boogie Wit da Hoodie Drowning (feat. Kodak Black) global 2017-04-20  632337
## # ℹ 32,976 more rows
```
…
The dataset
[here](https://uwmadison.box.com/shared/static/xj4vupjbicw6c8tbhuynw0pll6yh1w0d.csv)
contains similar data. Read these
data into a tsibble, keyed by `artist:track_name` and extract features of the
`streams` time series using the `features` function in the feasts library.

``` r
spotify_features <- spotify |>
    features(streams, feature_set(tag = "trend"))
spotify_features
```

```
## # A tibble: 121 × 11
##    artist   track_name trend_strength seasonal_strength_week seasonal_peak_week seasonal_trough_week
##    <chr>    <chr>               <dbl>                  <dbl>              <dbl>                <dbl>
##  1 "A Boog… "Drowning…          0.973                  0.765                  1                    3
##  2 "AJR"    "Weak"              0.996                  0.702                  4                    6
##  3 "Alan W… "Faded"             0.985                  0.777                  6                    1
##  4 "Alessi… "How Far …          0.998                  0.682                  4                    1
##  5 "Alok"   "Hear Me …          0.996                  0.803                  5                    1
##  6 "Anuel … "Sola (Re…          0.974                  0.832                  5                    3
##  7 "Ariana… "Side To …          0.998                  0.834                  6                    1
##  8 "Axwell… "More Tha…          0.988                  0.741                  3                    5
##  9 "Big Se… "Bounce B…          0.991                  0.593                  6                    1
## 10 "Bruno … "24K Magi…          0.998                  0.800                  6                    1
## # ℹ 111 more rows
## # ℹ 5 more variables: spikiness <dbl>, linearity <dbl>, curvature <dbl>, stl_e_acf1 <dbl>,
## #   stl_e_acf10 <dbl>
```
…
exclude: true

### Exercise Review

Which tracks had the highest and lowest `trend_strength`? Visualize their
streams over the course of the year.

``` r
spotify_features |>
    select(artist, track_name, trend_strength) |>
    arrange(-trend_strength)
```

```
## # A tibble: 121 × 3
##    artist       track_name                                                            trend_strength
##    <chr>        <chr>                                                                          <dbl>
##  1 The Weeknd   "Starboy"                                                                      0.999
##  2 ZAYN         "I Don’t Wanna Live Forever (Fifty Shades Darker) - From \"Fifty Sha…          0.998
##  3 DJ Snake     "Let Me Love You"                                                              0.998
##  4 Zedd         "Stay (with Alessia Cara)"                                                     0.998
##  5 Major Lazer  "Cold Water (feat. Justin Bieber & MØ)"                                        0.998
##  6 Bruno Mars   "That's What I Like"                                                           0.998
##  7 The Weeknd   "I Feel It Coming"                                                             0.998
##  8 Clean Bandit "Rockabye (feat. Sean Paul & Anne-Marie)"                                      0.998
##  9 Future       "Mask Off"                                                                     0.998
## 10 James Arthur "Say You Won't Let Go"                                                         0.998
## # ℹ 111 more rows
```
…
exclude: true

### Exercise Review

Which tracks had the highest and lowest `trend_strength`? Visualize their
streams over the course of the year.

``` r
spotify_features |>
    select(artist, track_name, trend_strength) |>
    arrange(trend_strength)
```

```
## # A tibble: 121 × 3
##    artist          track_name                         trend_strength
##    <chr>           <chr>                                       <dbl>
##  1 Eminem          Lose Yourself - Soundtrack Version          0.853
##  2 Luis Fonsi      Despacito (Featuring Daddy Yankee)          0.883
##  3 Thomas Rhett    Unforgettable                               0.899
##  4 Nicky Jam       Si Tú La Ves                                0.909
##  5 Ed Sheeran      Thinking Out Loud                           0.913
##  6 Ed Sheeran      Photograph                                  0.953
##  7 Sia             Cheap Thrills                               0.956
##  8 Sebastian Yatra Traicionera                                 0.959
##  9 Piso 21         Me Llamas (feat. Maluma) - Remix            0.965
## 10 Justin Bieber   Sorry                                       0.970
## # ℹ 111 more rows
```
…
